…
``` r
#gapminder %>% 
 #group_by(continent) %>% 
 # mutate(gainLifeexp = lifeExp-lag(lifeExp)) %>% 
 # summarize(meanbycontinent = mean(gainLifeexp))
  #mutate(changeLEbyContinent = mean(gainLifeexp))
  
  
gapminder %>% 
 group_by(continent) %>% 
  mutate(meanLifeexp = mean(lifeExp))
```

    ## # A tibble: 1,704 x 7
    ## # Groups: continent [5]
    ##    country     continent  year lifeExp      pop gdpPercap meanLifeexp
    ##    <fctr>      <fctr>    <int>   <dbl>    <int>     <dbl>       <dbl>
    ##  1 Afghanistan Asia       1952    28.8  8425333       779        60.1
    ##  2 Afghanistan Asia       1957    30.3  9240934       821        60.1
    ##  3 Afghanistan Asia       1962    32.0 10267083       853        60.1
    ##  4 Afghanistan Asia       1967    34.0 11537966       836        60.1
    ##  5 Afghanistan Asia       1972    36.1 13079460       740        60.1
    ##  6 Afghanistan Asia       1977    38.4 14880372       786        60.1
    ##  7 Afghanistan Asia       1982    39.9 12881816       978        60.1
    ##  8 Afghanistan Asia       1987    40.8 13867957       852        60.1
    ##  9 Afghanistan Asia       1992    41.7 16317921       649        60.1
    ## 10 Afghanistan Asia       1997    41.8 22227415       635        60.1
    ## # ... with 1,694 more rows
…
